{
  "lint": {
    "rules": {
      "exclude": ["no-explicit-any"]
    }
  },
  "importMap": "./import_map.json",
  "tasks": {
    "trollegle": "deno run -A --unstable trollegle.ts",
    "fixdata": "deno run -A --unstable fixdata.ts",
    "fixstate": "deno run -A --unstable fixstate.ts"
  }
}
